…
``` r
print(c(time.taken1,time.taken2))
```

    ## Time differences in secs
    ## [1] 0.10013390 0.08578801

Second pipe executes faster <br> Pipe 3

``` r
starwars |> 
    filter(hair_color == "blond" | sex == "male")
```

    ## # A tibble: 60 × 14
    ##    name     height  mass hair_color skin_color eye_color birth_year sex   gender homeworld species
    ##    <chr>     <int> <dbl> <chr>      <chr>      <chr>          <dbl> <chr> <chr>  <chr>     <chr>  
    ##  1 Luke Sk…    172    77 blond      fair       blue            19   male  mascu… Tatooine  Human  
    ##  2 Darth V…    202   136 none       white      yellow          41.9 male  mascu… Tatooine  Human  
    ##  3 Owen La…    178   120 brown, gr… light      blue            52   male  mascu… Tatooine  Human  
    ##  4 Biggs D…    183    84 black      light      brown           24   male  mascu… Tatooine  Human  
    ##  5 Obi-Wan…    182    77 auburn, w… fair       blue-gray       57   male  mascu… Stewjon   Human  
    ##  6 Anakin …    188    84 blond      fair       blue            41.9 male  mascu… Tatooine  Human  
    ##  7 Wilhuff…    180    NA auburn, g… fair       blue            64   male  mascu… Eriadu    Human  
    ##  8 Chewbac…    228   112 brown      unknown    blue           200   male  mascu… Kashyyyk  Wookiee
    ##  9 Han Solo    180    80 brown      fair       brown           29   male  mascu… Corellia  Human  
    ## 10 Greedo      173    74 <NA>       green      black           44   male  mascu… Rodia     Rodian 
    ## # ℹ 50 more rows
    ## # ℹ 3 more variables: films <list>, vehicles <list>, starships <list>
…
